('C:\\Users\\Zver\\PycharmProjects\\python_less\\pyth_steal\\dist\\test_bot.exe',
 True,
 False,
 False,
 'ico.ico',
 None,
 False,
 False,
 '<?xml version="1.0" encoding="UTF-8" standalone="yes"?><assembly manifestVersion="1.0" xmlns="urn:schemas-microsoft-com:asm.v1"><assemblyIdentity name="test_bot" processorArchitecture="x86" type="win32" version="1.0.0.0"/><dependency><dependentAssembly><assemblyIdentity language="*" name="Microsoft.Windows.Common-Controls" processorArchitecture="*" publicKeyToken="6595b64144ccf1df" type="win32" version="6.0.0.0"/><compatibility xmlns="urn:schemas-microsoft-com:compatibility.v1"/></dependentAssembly></dependency><compatibility xmlns="urn:schemas-microsoft-com:compatibility.v1"><application><supportedOS Id="{e2011457-1546-43c5-a5fe-008deee3d3f0}"/><supportedOS Id="{35138b9a-5d96-4fbd-8e2d-a2440225f93a}"/><supportedOS Id="{4a2f28e3-53b9-4441-ba9c-d69d4a4a6e38}"/><supportedOS Id="{1f676c76-80e1-4239-95bb-83d0f6d0da78}"/><supportedOS Id="{8e0f7a12-bfb3-4fe8-b9a5-48fd50a15a9a}"/></application></compatibility></assembly>',
 True,
 'test_bot.pkg',
 [('PYZ-00.pyz',
   'C:\\Users\\Zver\\PycharmProjects\\python_less\\pyth_steal\\build\\test_bot\\PYZ-00.pyz',
   'PYZ'),
  ('struct', 'c:\\python\\lib\\struct.pyo', 'PYMODULE'),
  ('pyimod01_os_path',
   'c:\\python\\lib\\site-packages\\PyInstaller\\loader\\pyimod01_os_path.pyc',
   'PYMODULE'),
  ('pyimod02_archive',
   'c:\\python\\lib\\site-packages\\PyInstaller\\loader\\pyimod02_archive.pyc',
   'PYMODULE'),
  ('pyimod03_importers',
   'c:\\python\\lib\\site-packages\\PyInstaller\\loader\\pyimod03_importers.pyc',
   'PYMODULE'),
  ('pyiboot01_bootstrap',
   'c:\\python\\lib\\site-packages\\PyInstaller\\loader\\pyiboot01_bootstrap.py',
   'PYSOURCE'),
  ('test_bot',
   'C:\\Users\\Zver\\PycharmProjects\\python_less\\pyth_steal\\test_bot.py',
   'PYSOURCE'),
  ('python37.dll', 'c:\\python\\python37.dll', 'BINARY'),
  ('VCRUNTIME140.dll', 'c:\\python\\VCRUNTIME140.dll', 'BINARY'),
  ('_ssl', 'c:\\python\\DLLs\\_ssl.pyd', 'EXTENSION'),
  ('pyexpat', 'c:\\python\\DLLs\\pyexpat.pyd', 'EXTENSION'),
  ('unicodedata', 'c:\\python\\DLLs\\unicodedata.pyd', 'EXTENSION'),
  ('_hashlib', 'c:\\python\\DLLs\\_hashlib.pyd', 'EXTENSION'),
  ('select', 'c:\\python\\DLLs\\select.pyd', 'EXTENSION'),
  ('_bz2', 'c:\\python\\DLLs\\_bz2.pyd', 'EXTENSION'),
  ('_lzma', 'c:\\python\\DLLs\\_lzma.pyd', 'EXTENSION'),
  ('_socket', 'c:\\python\\DLLs\\_socket.pyd', 'EXTENSION'),
  ('win32wnet',
   'c:\\python\\lib\\site-packages\\win32\\win32wnet.pyd',
   'EXTENSION'),
  ('_ctypes', 'c:\\python\\DLLs\\_ctypes.pyd', 'EXTENSION'),
  ('_queue', 'c:\\python\\DLLs\\_queue.pyd', 'EXTENSION'),
  ('libssl-1_1.dll', 'c:\\python\\DLLs\\libssl-1_1.dll', 'BINARY'),
  ('libcrypto-1_1.dll', 'c:\\python\\DLLs\\libcrypto-1_1.dll', 'BINARY'),
  ('pywintypes37.dll',
   'c:\\python\\lib\\site-packages\\pywin32_system32\\pywintypes37.dll',
   'BINARY'),
  ('base_library.zip',
   'C:\\Users\\Zver\\PycharmProjects\\python_less\\pyth_steal\\build\\test_bot\\base_library.zip',
   'DATA'),
  ('certifi\\cacert.pem',
   'c:\\python\\lib\\site-packages\\certifi\\cacert.pem',
   'DATA'),
  ('test_bot.exe.manifest',
   'C:\\Users\\Zver\\PycharmProjects\\python_less\\pyth_steal\\build\\test_bot\\test_bot.exe.manifest',
   'BINARY'),
  ('pyi-windows-manifest-filename test_bot.exe.manifest', '', 'OPTION')],
 [],
 False,
 False,
 1560188179,
 [('run.exe',
   'c:\\python\\lib\\site-packages\\PyInstaller\\bootloader\\Windows-32bit\\run.exe',
   'EXECUTABLE')])
