(['C:\\Users\\Zver\\PycharmProjects\\python_less\\pyth_steal\\stealer.PY'],
 ['C:\\Users\\Zver\\PycharmProjects\\python_less\\pyth_steal',
  'C:\\Users\\Zver\\PycharmProjects\\python_less\\pyth_steal'],
 ['codecs'],
 [],
 [],
 [],
 False,
 False,
 '3.7.3 (v3.7.3:ef4ec6ed12, Mar 25 2019, 21:26:53) [MSC v.1916 32 bit (Intel)]',
 [('stealer',
   'C:\\Users\\Zver\\PycharmProjects\\python_less\\pyth_steal\\stealer.PY',
   'PYSOURCE')],
 [('ntpath', 'c:\\python\\lib\\ntpath.py', 'PYMODULE'),
  ('_strptime', 'c:\\python\\lib\\_strptime.py', 'PYMODULE'),
  ('typing', 'c:\\python\\lib\\typing.py', 'PYMODULE'),
  ('_py_abc', 'c:\\python\\lib\\_py_abc.py', 'PYMODULE'),
  ('fnmatch', 'c:\\python\\lib\\fnmatch.py', 'PYMODULE'),
  ('_compat_pickle', 'c:\\python\\lib\\_compat_pickle.py', 'PYMODULE'),
  ('__future__', 'c:\\python\\lib\\__future__.py', 'PYMODULE'),
  ('difflib', 'c:\\python\\lib\\difflib.py', 'PYMODULE'),
  ('ast', 'c:\\python\\lib\\ast.py', 'PYMODULE'),
  ('inspect', 'c:\\python\\lib\\inspect.py', 'PYMODULE'),
  ('cmd', 'c:\\python\\lib\\cmd.py', 'PYMODULE'),
  ('bdb', 'c:\\python\\lib\\bdb.py', 'PYMODULE'),
  ('opcode', 'c:\\python\\lib\\opcode.py', 'PYMODULE'),
  ('dis', 'c:\\python\\lib\\dis.py', 'PYMODULE'),
  ('codeop', 'c:\\python\\lib\\codeop.py', 'PYMODULE'),
  ('code', 'c:\\python\\lib\\code.py', 'PYMODULE'),
  ('glob', 'c:\\python\\lib\\glob.py', 'PYMODULE'),
  ('shlex', 'c:\\python\\lib\\shlex.py', 'PYMODULE'),
  ('runpy', 'c:\\python\\lib\\runpy.py', 'PYMODULE'),
  ('importlib._bootstrap',
   'c:\\python\\lib\\importlib\\_bootstrap.py',
   'PYMODULE'),
  ('importlib._bootstrap_external',
   'c:\\python\\lib\\importlib\\_bootstrap_external.py',
   'PYMODULE'),
  ('importlib.machinery',
   'c:\\python\\lib\\importlib\\machinery.py',
   'PYMODULE'),
  ('importlib.util', 'c:\\python\\lib\\importlib\\util.py', 'PYMODULE'),
  ('importlib.abc', 'c:\\python\\lib\\importlib\\abc.py', 'PYMODULE'),
  ('importlib', 'c:\\python\\lib\\importlib\\__init__.py', 'PYMODULE'),
  ('pkgutil', 'c:\\python\\lib\\pkgutil.py', 'PYMODULE'),
  ('xml.parsers', 'c:\\python\\lib\\xml\\parsers\\__init__.py', 'PYMODULE'),
  ('xml.parsers.expat', 'c:\\python\\lib\\xml\\parsers\\expat.py', 'PYMODULE'),
  ('plistlib', 'c:\\python\\lib\\plistlib.py', 'PYMODULE'),
  ('platform', 'c:\\python\\lib\\platform.py', 'PYMODULE'),
  ('token', 'c:\\python\\lib\\token.py', 'PYMODULE'),
  ('tokenize', 'c:\\python\\lib\\tokenize.py', 'PYMODULE'),
  ('urllib.parse', 'c:\\python\\lib\\urllib\\parse.py', 'PYMODULE'),
  ('tempfile', 'c:\\python\\lib\\tempfile.py', 'PYMODULE'),
  ('tty', 'c:\\python\\lib\\tty.py', 'PYMODULE'),
  ('pydoc_data', 'c:\\python\\lib\\pydoc_data\\__init__.py', 'PYMODULE'),
  ('pydoc_data.topics', 'c:\\python\\lib\\pydoc_data\\topics.py', 'PYMODULE'),
  ('html.entities', 'c:\\python\\lib\\html\\entities.py', 'PYMODULE'),
  ('html', 'c:\\python\\lib\\html\\__init__.py', 'PYMODULE'),
  ('ssl', 'c:\\python\\lib\\ssl.py', 'PYMODULE'),
  ('http.client', 'c:\\python\\lib\\http\\client.py', 'PYMODULE'),
  ('mimetypes', 'c:\\python\\lib\\mimetypes.py', 'PYMODULE'),
  ('socketserver', 'c:\\python\\lib\\socketserver.py', 'PYMODULE'),
  ('http', 'c:\\python\\lib\\http\\__init__.py', 'PYMODULE'),
  ('http.server', 'c:\\python\\lib\\http\\server.py', 'PYMODULE'),
  ('optparse', 'c:\\python\\lib\\optparse.py', 'PYMODULE'),
  ('uu', 'c:\\python\\lib\\uu.py', 'PYMODULE'),
  ('email.feedparser', 'c:\\python\\lib\\email\\feedparser.py', 'PYMODULE'),
  ('email.parser', 'c:\\python\\lib\\email\\parser.py', 'PYMODULE'),
  ('calendar', 'c:\\python\\lib\\calendar.py', 'PYMODULE'),
  ('email._parseaddr', 'c:\\python\\lib\\email\\_parseaddr.py', 'PYMODULE'),
  ('email.utils', 'c:\\python\\lib\\email\\utils.py', 'PYMODULE'),
  ('email.errors', 'c:\\python\\lib\\email\\errors.py', 'PYMODULE'),
  ('email.header', 'c:\\python\\lib\\email\\header.py', 'PYMODULE'),
  ('email._policybase', 'c:\\python\\lib\\email\\_policybase.py', 'PYMODULE'),
  ('email.base64mime', 'c:\\python\\lib\\email\\base64mime.py', 'PYMODULE'),
  ('email.charset', 'c:\\python\\lib\\email\\charset.py', 'PYMODULE'),
  ('email._encoded_words',
   'c:\\python\\lib\\email\\_encoded_words.py',
   'PYMODULE'),
  ('hashlib', 'c:\\python\\lib\\hashlib.py', 'PYMODULE'),
  ('bisect', 'c:\\python\\lib\\bisect.py', 'PYMODULE'),
  ('random', 'c:\\python\\lib\\random.py', 'PYMODULE'),
  ('email.generator', 'c:\\python\\lib\\email\\generator.py', 'PYMODULE'),
  ('email.iterators', 'c:\\python\\lib\\email\\iterators.py', 'PYMODULE'),
  ('urllib', 'c:\\python\\lib\\urllib\\__init__.py', 'PYMODULE'),
  ('email._header_value_parser',
   'c:\\python\\lib\\email\\_header_value_parser.py',
   'PYMODULE'),
  ('email.headerregistry',
   'c:\\python\\lib\\email\\headerregistry.py',
   'PYMODULE'),
  ('email.quoprimime', 'c:\\python\\lib\\email\\quoprimime.py', 'PYMODULE'),
  ('email.contentmanager',
   'c:\\python\\lib\\email\\contentmanager.py',
   'PYMODULE'),
  ('email.policy', 'c:\\python\\lib\\email\\policy.py', 'PYMODULE'),
  ('email.message', 'c:\\python\\lib\\email\\message.py', 'PYMODULE'),
  ('lzma', 'c:\\python\\lib\\lzma.py', 'PYMODULE'),
  ('gzip', 'c:\\python\\lib\\gzip.py', 'PYMODULE'),
  ('tarfile', 'c:\\python\\lib\\tarfile.py', 'PYMODULE'),
  ('py_compile', 'c:\\python\\lib\\py_compile.py', 'PYMODULE'),
  ('socket', 'c:\\python\\lib\\socket.py', 'PYMODULE'),
  ('webbrowser', 'c:\\python\\lib\\webbrowser.py', 'PYMODULE'),
  ('pydoc', 'c:\\python\\lib\\pydoc.py', 'PYMODULE'),
  ('pdb', 'c:\\python\\lib\\pdb.py', 'PYMODULE'),
  ('unittest.util', 'c:\\python\\lib\\unittest\\util.py', 'PYMODULE'),
  ('unittest.result', 'c:\\python\\lib\\unittest\\result.py', 'PYMODULE'),
  ('string', 'c:\\python\\lib\\string.py', 'PYMODULE'),
  ('logging', 'c:\\python\\lib\\logging\\__init__.py', 'PYMODULE'),
  ('unittest.case', 'c:\\python\\lib\\unittest\\case.py', 'PYMODULE'),
  ('unittest.suite', 'c:\\python\\lib\\unittest\\suite.py', 'PYMODULE'),
  ('unittest.loader', 'c:\\python\\lib\\unittest\\loader.py', 'PYMODULE'),
  ('unittest.runner', 'c:\\python\\lib\\unittest\\runner.py', 'PYMODULE'),
  ('unittest.main', 'c:\\python\\lib\\unittest\\main.py', 'PYMODULE'),
  ('unittest.signals', 'c:\\python\\lib\\unittest\\signals.py', 'PYMODULE'),
  ('unittest', 'c:\\python\\lib\\unittest\\__init__.py', 'PYMODULE'),
  ('doctest', 'c:\\python\\lib\\doctest.py', 'PYMODULE'),
  ('textwrap', 'c:\\python\\lib\\textwrap.py', 'PYMODULE'),
  ('argparse', 'c:\\python\\lib\\argparse.py', 'PYMODULE'),
  ('pprint', 'c:\\python\\lib\\pprint.py', 'PYMODULE'),
  ('pickle', 'c:\\python\\lib\\pickle.py', 'PYMODULE'),
  ('tracemalloc', 'c:\\python\\lib\\tracemalloc.py', 'PYMODULE'),
  ('quopri', 'c:\\python\\lib\\quopri.py', 'PYMODULE'),
  ('_compression', 'c:\\python\\lib\\_compression.py', 'PYMODULE'),
  ('bz2', 'c:\\python\\lib\\bz2.py', 'PYMODULE'),
  ('struct', 'c:\\python\\lib\\struct.py', 'PYMODULE'),
  ('stat', 'c:\\python\\lib\\stat.py', 'PYMODULE'),
  ('genericpath', 'c:\\python\\lib\\genericpath.py', 'PYMODULE'),
  ('posixpath', 'c:\\python\\lib\\posixpath.py', 'PYMODULE'),
  ('signal', 'c:\\python\\lib\\signal.py', 'PYMODULE'),
  ('contextlib', 'c:\\python\\lib\\contextlib.py', 'PYMODULE'),
  ('_threading_local', 'c:\\python\\lib\\_threading_local.py', 'PYMODULE'),
  ('threading', 'c:\\python\\lib\\threading.py', 'PYMODULE'),
  ('selectors', 'c:\\python\\lib\\selectors.py', 'PYMODULE'),
  ('subprocess', 'c:\\python\\lib\\subprocess.py', 'PYMODULE'),
  ('copy', 'c:\\python\\lib\\copy.py', 'PYMODULE'),
  ('gettext', 'c:\\python\\lib\\gettext.py', 'PYMODULE'),
  ('getopt', 'c:\\python\\lib\\getopt.py', 'PYMODULE'),
  ('base64', 'c:\\python\\lib\\base64.py', 'PYMODULE'),
  ('stringprep', 'c:\\python\\lib\\stringprep.py', 'PYMODULE'),
  ('requests.exceptions',
   'c:\\python\\lib\\site-packages\\requests\\exceptions.py',
   'PYMODULE'),
  ('requests.packages.urllib3.exceptions',
   'c:\\python\\lib\\site-packages\\requests\\packages\\urllib3\\exceptions.py',
   'PYMODULE'),
  ('requests.packages.urllib3',
   'c:\\python\\lib\\site-packages\\requests\\packages\\urllib3\\__init__.py',
   'PYMODULE'),
  ('requests.packages',
   'c:\\python\\lib\\site-packages\\requests\\packages\\__init__.py',
   'PYMODULE'),
  ('requests.packages.chardet',
   'c:\\python\\lib\\site-packages\\requests\\packages\\chardet\\__init__.py',
   'PYMODULE'),
  ('requests.packages.chardet.universaldetector',
   'c:\\python\\lib\\site-packages\\requests\\packages\\chardet\\universaldetector.py',
   'PYMODULE'),
  ('requests.packages.chardet.escprober',
   'c:\\python\\lib\\site-packages\\requests\\packages\\chardet\\escprober.py',
   'PYMODULE'),
  ('requests.packages.chardet.compat',
   'c:\\python\\lib\\site-packages\\requests\\packages\\chardet\\compat.py',
   'PYMODULE'),
  ('requests.packages.chardet.codingstatemachine',
   'c:\\python\\lib\\site-packages\\requests\\packages\\chardet\\codingstatemachine.py',
   'PYMODULE'),
  ('requests.packages.chardet.charsetprober',
   'c:\\python\\lib\\site-packages\\requests\\packages\\chardet\\charsetprober.py',
   'PYMODULE'),
  ('requests.packages.chardet.escsm',
   'c:\\python\\lib\\site-packages\\requests\\packages\\chardet\\escsm.py',
   'PYMODULE'),
  ('requests.packages.chardet.sbcsgroupprober',
   'c:\\python\\lib\\site-packages\\requests\\packages\\chardet\\sbcsgroupprober.py',
   'PYMODULE'),
  ('requests.packages.chardet.hebrewprober',
   'c:\\python\\lib\\site-packages\\requests\\packages\\chardet\\hebrewprober.py',
   'PYMODULE'),
  ('requests.packages.chardet.langhebrewmodel',
   'c:\\python\\lib\\site-packages\\requests\\packages\\chardet\\langhebrewmodel.py',
   'PYMODULE'),
  ('requests.packages.chardet.langthaimodel',
   'c:\\python\\lib\\site-packages\\requests\\packages\\chardet\\langthaimodel.py',
   'PYMODULE'),
  ('requests.packages.chardet.langhungarianmodel',
   'c:\\python\\lib\\site-packages\\requests\\packages\\chardet\\langhungarianmodel.py',
   'PYMODULE'),
  ('requests.packages.chardet.langbulgarianmodel',
   'c:\\python\\lib\\site-packages\\requests\\packages\\chardet\\langbulgarianmodel.py',
   'PYMODULE'),
  ('requests.packages.chardet.langgreekmodel',
   'c:\\python\\lib\\site-packages\\requests\\packages\\chardet\\langgreekmodel.py',
   'PYMODULE'),
  ('requests.packages.chardet.langcyrillicmodel',
   'c:\\python\\lib\\site-packages\\requests\\packages\\chardet\\langcyrillicmodel.py',
   'PYMODULE'),
  ('requests.packages.chardet.sbcharsetprober',
   'c:\\python\\lib\\site-packages\\requests\\packages\\chardet\\sbcharsetprober.py',
   'PYMODULE'),
  ('requests.packages.chardet.charsetgroupprober',
   'c:\\python\\lib\\site-packages\\requests\\packages\\chardet\\charsetgroupprober.py',
   'PYMODULE'),
  ('requests.packages.chardet.mbcsgroupprober',
   'c:\\python\\lib\\site-packages\\requests\\packages\\chardet\\mbcsgroupprober.py',
   'PYMODULE'),
  ('requests.packages.chardet.euctwprober',
   'c:\\python\\lib\\site-packages\\requests\\packages\\chardet\\euctwprober.py',
   'PYMODULE'),
  ('requests.packages.chardet.mbcssm',
   'c:\\python\\lib\\site-packages\\requests\\packages\\chardet\\mbcssm.py',
   'PYMODULE'),
  ('requests.packages.chardet.chardistribution',
   'c:\\python\\lib\\site-packages\\requests\\packages\\chardet\\chardistribution.py',
   'PYMODULE'),
  ('requests.packages.chardet.jisfreq',
   'c:\\python\\lib\\site-packages\\requests\\packages\\chardet\\jisfreq.py',
   'PYMODULE'),
  ('requests.packages.chardet.big5freq',
   'c:\\python\\lib\\site-packages\\requests\\packages\\chardet\\big5freq.py',
   'PYMODULE'),
  ('requests.packages.chardet.gb2312freq',
   'c:\\python\\lib\\site-packages\\requests\\packages\\chardet\\gb2312freq.py',
   'PYMODULE'),
  ('requests.packages.chardet.euckrfreq',
   'c:\\python\\lib\\site-packages\\requests\\packages\\chardet\\euckrfreq.py',
   'PYMODULE'),
  ('requests.packages.chardet.euctwfreq',
   'c:\\python\\lib\\site-packages\\requests\\packages\\chardet\\euctwfreq.py',
   'PYMODULE'),
  ('requests.packages.chardet.mbcharsetprober',
   'c:\\python\\lib\\site-packages\\requests\\packages\\chardet\\mbcharsetprober.py',
   'PYMODULE'),
  ('requests.packages.chardet.big5prober',
   'c:\\python\\lib\\site-packages\\requests\\packages\\chardet\\big5prober.py',
   'PYMODULE'),
  ('requests.packages.chardet.cp949prober',
   'c:\\python\\lib\\site-packages\\requests\\packages\\chardet\\cp949prober.py',
   'PYMODULE'),
  ('requests.packages.chardet.euckrprober',
   'c:\\python\\lib\\site-packages\\requests\\packages\\chardet\\euckrprober.py',
   'PYMODULE'),
  ('requests.packages.chardet.gb2312prober',
   'c:\\python\\lib\\site-packages\\requests\\packages\\chardet\\gb2312prober.py',
   'PYMODULE'),
  ('requests.packages.chardet.eucjpprober',
   'c:\\python\\lib\\site-packages\\requests\\packages\\chardet\\eucjpprober.py',
   'PYMODULE'),
  ('requests.packages.chardet.jpcntx',
   'c:\\python\\lib\\site-packages\\requests\\packages\\chardet\\jpcntx.py',
   'PYMODULE'),
  ('requests.packages.chardet.sjisprober',
   'c:\\python\\lib\\site-packages\\requests\\packages\\chardet\\sjisprober.py',
   'PYMODULE'),
  ('requests.packages.chardet.utf8prober',
   'c:\\python\\lib\\site-packages\\requests\\packages\\chardet\\utf8prober.py',
   'PYMODULE'),
  ('requests.packages.chardet.latin1prober',
   'c:\\python\\lib\\site-packages\\requests\\packages\\chardet\\latin1prober.py',
   'PYMODULE'),
  ('requests.packages.chardet.constants',
   'c:\\python\\lib\\site-packages\\requests\\packages\\chardet\\constants.py',
   'PYMODULE'),
  ('requests.packages.urllib3.util.retry',
   'c:\\python\\lib\\site-packages\\requests\\packages\\urllib3\\util\\retry.py',
   'PYMODULE'),
  ('requests.packages.urllib3.util',
   'c:\\python\\lib\\site-packages\\requests\\packages\\urllib3\\util\\__init__.py',
   'PYMODULE'),
  ('requests.packages.urllib3.util.ssl_',
   'c:\\python\\lib\\site-packages\\requests\\packages\\urllib3\\util\\ssl_.py',
   'PYMODULE'),
  ('requests.packages.urllib3.util.response',
   'c:\\python\\lib\\site-packages\\requests\\packages\\urllib3\\util\\response.py',
   'PYMODULE'),
  ('requests.packages.urllib3.util.connection',
   'c:\\python\\lib\\site-packages\\requests\\packages\\urllib3\\util\\connection.py',
   'PYMODULE'),
  ('requests.packages.urllib3.packages.six',
   'c:\\python\\lib\\site-packages\\requests\\packages\\urllib3\\packages\\six.py',
   'PYMODULE'),
  ('requests.packages.urllib3.packages',
   'c:\\python\\lib\\site-packages\\requests\\packages\\urllib3\\packages\\__init__.py',
   'PYMODULE'),
  ('requests.packages.urllib3.packages.ssl_match_hostname',
   'c:\\python\\lib\\site-packages\\requests\\packages\\urllib3\\packages\\ssl_match_hostname\\__init__.py',
   'PYMODULE'),
  ('requests.packages.urllib3.packages.ssl_match_hostname._implementation',
   'c:\\python\\lib\\site-packages\\requests\\packages\\urllib3\\packages\\ssl_match_hostname\\_implementation.py',
   'PYMODULE'),
  ('requests.packages.urllib3.util.timeout',
   'c:\\python\\lib\\site-packages\\requests\\packages\\urllib3\\util\\timeout.py',
   'PYMODULE'),
  ('requests.packages.urllib3.util.url',
   'c:\\python\\lib\\site-packages\\requests\\packages\\urllib3\\util\\url.py',
   'PYMODULE'),
  ('requests.packages.urllib3.util.request',
   'c:\\python\\lib\\site-packages\\requests\\packages\\urllib3\\util\\request.py',
   'PYMODULE'),
  ('requests.packages.urllib3.response',
   'c:\\python\\lib\\site-packages\\requests\\packages\\urllib3\\response.py',
   'PYMODULE'),
  ('requests.packages.urllib3.connection',
   'c:\\python\\lib\\site-packages\\requests\\packages\\urllib3\\connection.py',
   'PYMODULE'),
  ('requests.packages.urllib3._collections',
   'c:\\python\\lib\\site-packages\\requests\\packages\\urllib3\\_collections.py',
   'PYMODULE'),
  ('requests.packages.urllib3.packages.ordered_dict',
   'c:\\python\\lib\\site-packages\\requests\\packages\\urllib3\\packages\\ordered_dict.py',
   'PYMODULE'),
  ('requests.packages.urllib3.poolmanager',
   'c:\\python\\lib\\site-packages\\requests\\packages\\urllib3\\poolmanager.py',
   'PYMODULE'),
  ('requests.packages.urllib3.request',
   'c:\\python\\lib\\site-packages\\requests\\packages\\urllib3\\request.py',
   'PYMODULE'),
  ('requests.packages.urllib3.filepost',
   'c:\\python\\lib\\site-packages\\requests\\packages\\urllib3\\filepost.py',
   'PYMODULE'),
  ('requests.packages.urllib3.fields',
   'c:\\python\\lib\\site-packages\\requests\\packages\\urllib3\\fields.py',
   'PYMODULE'),
  ('uuid', 'c:\\python\\lib\\uuid.py', 'PYMODULE'),
  ('ctypes.util', 'c:\\python\\lib\\ctypes\\util.py', 'PYMODULE'),
  ('ctypes._aix', 'c:\\python\\lib\\ctypes\\_aix.py', 'PYMODULE'),
  ('ctypes.macholib.dyld',
   'c:\\python\\lib\\ctypes\\macholib\\dyld.py',
   'PYMODULE'),
  ('ctypes.macholib',
   'c:\\python\\lib\\ctypes\\macholib\\__init__.py',
   'PYMODULE'),
  ('ctypes.macholib.dylib',
   'c:\\python\\lib\\ctypes\\macholib\\dylib.py',
   'PYMODULE'),
  ('ctypes.macholib.framework',
   'c:\\python\\lib\\ctypes\\macholib\\framework.py',
   'PYMODULE'),
  ('netbios',
   'c:\\python\\lib\\site-packages\\win32\\lib\\netbios.py',
   'PYMODULE'),
  ('ctypes', 'c:\\python\\lib\\ctypes\\__init__.py', 'PYMODULE'),
  ('ctypes._endian', 'c:\\python\\lib\\ctypes\\_endian.py', 'PYMODULE'),
  ('requests.packages.urllib3.connectionpool',
   'c:\\python\\lib\\site-packages\\requests\\packages\\urllib3\\connectionpool.py',
   'PYMODULE'),
  ('queue', 'c:\\python\\lib\\queue.py', 'PYMODULE'),
  ('xml', 'c:\\python\\lib\\xml\\__init__.py', 'PYMODULE'),
  ('xml.sax.expatreader',
   'c:\\python\\lib\\xml\\sax\\expatreader.py',
   'PYMODULE'),
  ('xml.sax.saxutils', 'c:\\python\\lib\\xml\\sax\\saxutils.py', 'PYMODULE'),
  ('urllib.request', 'c:\\python\\lib\\urllib\\request.py', 'PYMODULE'),
  ('getpass', 'c:\\python\\lib\\getpass.py', 'PYMODULE'),
  ('nturl2path', 'c:\\python\\lib\\nturl2path.py', 'PYMODULE'),
  ('ftplib', 'c:\\python\\lib\\ftplib.py', 'PYMODULE'),
  ('netrc', 'c:\\python\\lib\\netrc.py', 'PYMODULE'),
  ('http.cookiejar', 'c:\\python\\lib\\http\\cookiejar.py', 'PYMODULE'),
  ('urllib.response', 'c:\\python\\lib\\urllib\\response.py', 'PYMODULE'),
  ('urllib.error', 'c:\\python\\lib\\urllib\\error.py', 'PYMODULE'),
  ('xml.sax', 'c:\\python\\lib\\xml\\sax\\__init__.py', 'PYMODULE'),
  ('xml.sax.handler', 'c:\\python\\lib\\xml\\sax\\handler.py', 'PYMODULE'),
  ('xml.sax._exceptions',
   'c:\\python\\lib\\xml\\sax\\_exceptions.py',
   'PYMODULE'),
  ('xml.sax.xmlreader', 'c:\\python\\lib\\xml\\sax\\xmlreader.py', 'PYMODULE'),
  ('PIL.ImageGrab',
   'c:\\python\\lib\\site-packages\\PIL\\ImageGrab.py',
   'PYMODULE'),
  ('PIL.BmpImagePlugin',
   'c:\\python\\lib\\site-packages\\PIL\\BmpImagePlugin.py',
   'PYMODULE'),
  ('PIL._binary',
   'c:\\python\\lib\\site-packages\\PIL\\_binary.py',
   'PYMODULE'),
  ('PIL._util', 'c:\\python\\lib\\site-packages\\PIL\\_util.py', 'PYMODULE'),
  ('pathlib', 'c:\\python\\lib\\pathlib.py', 'PYMODULE'),
  ('PIL.ImagePalette',
   'c:\\python\\lib\\site-packages\\PIL\\ImagePalette.py',
   'PYMODULE'),
  ('PIL.PaletteFile',
   'c:\\python\\lib\\site-packages\\PIL\\PaletteFile.py',
   'PYMODULE'),
  ('PIL.GimpGradientFile',
   'c:\\python\\lib\\site-packages\\PIL\\GimpGradientFile.py',
   'PYMODULE'),
  ('PIL.GimpPaletteFile',
   'c:\\python\\lib\\site-packages\\PIL\\GimpPaletteFile.py',
   'PYMODULE'),
  ('PIL.ImageColor',
   'c:\\python\\lib\\site-packages\\PIL\\ImageColor.py',
   'PYMODULE'),
  ('colorsys', 'c:\\python\\lib\\colorsys.py', 'PYMODULE'),
  ('PIL.ImageFile',
   'c:\\python\\lib\\site-packages\\PIL\\ImageFile.py',
   'PYMODULE'),
  ('PIL.Image', 'c:\\python\\lib\\site-packages\\PIL\\Image.py', 'PYMODULE'),
  ('PIL.EpsImagePlugin',
   'c:\\python\\lib\\site-packages\\PIL\\EpsImagePlugin.py',
   'PYMODULE'),
  ('distutils.spawn', 'c:\\python\\lib\\distutils\\spawn.py', 'PYMODULE'),
  ('distutils.sysconfig',
   'c:\\python\\lib\\distutils\\sysconfig.py',
   'PYMODULE'),
  ('distutils.text_file',
   'c:\\python\\lib\\distutils\\text_file.py',
   'PYMODULE'),
  ('_osx_support', 'c:\\python\\lib\\_osx_support.py', 'PYMODULE'),
  ('distutils.log', 'c:\\python\\lib\\distutils\\log.py', 'PYMODULE'),
  ('distutils', 'c:\\python\\lib\\distutils\\__init__.py', 'PYMODULE'),
  ('distutils.debug', 'c:\\python\\lib\\distutils\\debug.py', 'PYMODULE'),
  ('distutils.errors', 'c:\\python\\lib\\distutils\\errors.py', 'PYMODULE'),
  ('PIL.BufrStubImagePlugin',
   'c:\\python\\lib\\site-packages\\PIL\\BufrStubImagePlugin.py',
   'PYMODULE'),
  ('PIL.MspImagePlugin',
   'c:\\python\\lib\\site-packages\\PIL\\MspImagePlugin.py',
   'PYMODULE'),
  ('PIL.XpmImagePlugin',
   'c:\\python\\lib\\site-packages\\PIL\\XpmImagePlugin.py',
   'PYMODULE'),
  ('PIL.XVThumbImagePlugin',
   'c:\\python\\lib\\site-packages\\PIL\\XVThumbImagePlugin.py',
   'PYMODULE'),
  ('PIL.SgiImagePlugin',
   'c:\\python\\lib\\site-packages\\PIL\\SgiImagePlugin.py',
   'PYMODULE'),
  ('PIL.ImtImagePlugin',
   'c:\\python\\lib\\site-packages\\PIL\\ImtImagePlugin.py',
   'PYMODULE'),
  ('PIL.PcxImagePlugin',
   'c:\\python\\lib\\site-packages\\PIL\\PcxImagePlugin.py',
   'PYMODULE'),
  ('PIL.SpiderImagePlugin',
   'c:\\python\\lib\\site-packages\\PIL\\SpiderImagePlugin.py',
   'PYMODULE'),
  ('PIL.ImageTk',
   'c:\\python\\lib\\site-packages\\PIL\\ImageTk.py',
   'PYMODULE'),
  ('PIL.PsdImagePlugin',
   'c:\\python\\lib\\site-packages\\PIL\\PsdImagePlugin.py',
   'PYMODULE'),
  ('PIL.WmfImagePlugin',
   'c:\\python\\lib\\site-packages\\PIL\\WmfImagePlugin.py',
   'PYMODULE'),
  ('PIL.PixarImagePlugin',
   'c:\\python\\lib\\site-packages\\PIL\\PixarImagePlugin.py',
   'PYMODULE'),
  ('PIL.IcoImagePlugin',
   'c:\\python\\lib\\site-packages\\PIL\\IcoImagePlugin.py',
   'PYMODULE'),
  ('PIL.WebPImagePlugin',
   'c:\\python\\lib\\site-packages\\PIL\\WebPImagePlugin.py',
   'PYMODULE'),
  ('PIL.DcxImagePlugin',
   'c:\\python\\lib\\site-packages\\PIL\\DcxImagePlugin.py',
   'PYMODULE'),
  ('PIL.IptcImagePlugin',
   'c:\\python\\lib\\site-packages\\PIL\\IptcImagePlugin.py',
   'PYMODULE'),
  ('PIL.PcdImagePlugin',
   'c:\\python\\lib\\site-packages\\PIL\\PcdImagePlugin.py',
   'PYMODULE'),
  ('PIL.MpoImagePlugin',
   'c:\\python\\lib\\site-packages\\PIL\\MpoImagePlugin.py',
   'PYMODULE'),
  ('PIL.TgaImagePlugin',
   'c:\\python\\lib\\site-packages\\PIL\\TgaImagePlugin.py',
   'PYMODULE'),
  ('PIL.Jpeg2KImagePlugin',
   'c:\\python\\lib\\site-packages\\PIL\\Jpeg2KImagePlugin.py',
   'PYMODULE'),
  ('PIL.IcnsImagePlugin',
   'c:\\python\\lib\\site-packages\\PIL\\IcnsImagePlugin.py',
   'PYMODULE'),
  ('PIL.GribStubImagePlugin',
   'c:\\python\\lib\\site-packages\\PIL\\GribStubImagePlugin.py',
   'PYMODULE'),
  ('PIL.MpegImagePlugin',
   'c:\\python\\lib\\site-packages\\PIL\\MpegImagePlugin.py',
   'PYMODULE'),
  ('PIL.McIdasImagePlugin',
   'c:\\python\\lib\\site-packages\\PIL\\McIdasImagePlugin.py',
   'PYMODULE'),
  ('PIL.XbmImagePlugin',
   'c:\\python\\lib\\site-packages\\PIL\\XbmImagePlugin.py',
   'PYMODULE'),
  ('PIL.FpxImagePlugin',
   'c:\\python\\lib\\site-packages\\PIL\\FpxImagePlugin.py',
   'PYMODULE'),
  ('PIL.ImImagePlugin',
   'c:\\python\\lib\\site-packages\\PIL\\ImImagePlugin.py',
   'PYMODULE'),
  ('PIL.PalmImagePlugin',
   'c:\\python\\lib\\site-packages\\PIL\\PalmImagePlugin.py',
   'PYMODULE'),
  ('PIL.MicImagePlugin',
   'c:\\python\\lib\\site-packages\\PIL\\MicImagePlugin.py',
   'PYMODULE'),
  ('PIL.Hdf5StubImagePlugin',
   'c:\\python\\lib\\site-packages\\PIL\\Hdf5StubImagePlugin.py',
   'PYMODULE'),
  ('PIL.FtexImagePlugin',
   'c:\\python\\lib\\site-packages\\PIL\\FtexImagePlugin.py',
   'PYMODULE'),
  ('PIL.DdsImagePlugin',
   'c:\\python\\lib\\site-packages\\PIL\\DdsImagePlugin.py',
   'PYMODULE'),
  ('PIL.FitsStubImagePlugin',
   'c:\\python\\lib\\site-packages\\PIL\\FitsStubImagePlugin.py',
   'PYMODULE'),
  ('PIL.GbrImagePlugin',
   'c:\\python\\lib\\site-packages\\PIL\\GbrImagePlugin.py',
   'PYMODULE'),
  ('PIL.FliImagePlugin',
   'c:\\python\\lib\\site-packages\\PIL\\FliImagePlugin.py',
   'PYMODULE'),
  ('PIL.SunImagePlugin',
   'c:\\python\\lib\\site-packages\\PIL\\SunImagePlugin.py',
   'PYMODULE'),
  ('PIL.BlpImagePlugin',
   'c:\\python\\lib\\site-packages\\PIL\\BlpImagePlugin.py',
   'PYMODULE'),
  ('PIL.PdfImagePlugin',
   'c:\\python\\lib\\site-packages\\PIL\\PdfImagePlugin.py',
   'PYMODULE'),
  ('PIL.PdfParser',
   'c:\\python\\lib\\site-packages\\PIL\\PdfParser.py',
   'PYMODULE'),
  ('PIL.ImageSequence',
   'c:\\python\\lib\\site-packages\\PIL\\ImageSequence.py',
   'PYMODULE'),
  ('PIL.CurImagePlugin',
   'c:\\python\\lib\\site-packages\\PIL\\CurImagePlugin.py',
   'PYMODULE'),
  ('PIL.TiffImagePlugin',
   'c:\\python\\lib\\site-packages\\PIL\\TiffImagePlugin.py',
   'PYMODULE'),
  ('distutils.version', 'c:\\python\\lib\\distutils\\version.py', 'PYMODULE'),
  ('fractions', 'c:\\python\\lib\\fractions.py', 'PYMODULE'),
  ('decimal', 'c:\\python\\lib\\decimal.py', 'PYMODULE'),
  ('_pydecimal', 'c:\\python\\lib\\_pydecimal.py', 'PYMODULE'),
  ('contextvars', 'c:\\python\\lib\\contextvars.py', 'PYMODULE'),
  ('PIL.ImageShow',
   'c:\\python\\lib\\site-packages\\PIL\\ImageShow.py',
   'PYMODULE'),
  ('pipes', 'c:\\python\\lib\\pipes.py', 'PYMODULE'),
  ('PIL.ImageQt',
   'c:\\python\\lib\\site-packages\\PIL\\ImageQt.py',
   'PYMODULE'),
  ('PIL.ImageFilter',
   'c:\\python\\lib\\site-packages\\PIL\\ImageFilter.py',
   'PYMODULE'),
  ('PIL.PyAccess',
   'c:\\python\\lib\\site-packages\\PIL\\PyAccess.py',
   'PYMODULE'),
  ('PIL.PngImagePlugin',
   'c:\\python\\lib\\site-packages\\PIL\\PngImagePlugin.py',
   'PYMODULE'),
  ('PIL.PpmImagePlugin',
   'c:\\python\\lib\\site-packages\\PIL\\PpmImagePlugin.py',
   'PYMODULE'),
  ('PIL.JpegImagePlugin',
   'c:\\python\\lib\\site-packages\\PIL\\JpegImagePlugin.py',
   'PYMODULE'),
  ('PIL.JpegPresets',
   'c:\\python\\lib\\site-packages\\PIL\\JpegPresets.py',
   'PYMODULE'),
  ('PIL.GifImagePlugin',
   'c:\\python\\lib\\site-packages\\PIL\\GifImagePlugin.py',
   'PYMODULE'),
  ('PIL.ImageChops',
   'c:\\python\\lib\\site-packages\\PIL\\ImageChops.py',
   'PYMODULE'),
  ('numbers', 'c:\\python\\lib\\numbers.py', 'PYMODULE'),
  ('PIL.TiffTags',
   'c:\\python\\lib\\site-packages\\PIL\\TiffTags.py',
   'PYMODULE'),
  ('PIL.ImageMode',
   'c:\\python\\lib\\site-packages\\PIL\\ImageMode.py',
   'PYMODULE'),
  ('PIL', 'c:\\python\\lib\\site-packages\\PIL\\__init__.py', 'PYMODULE'),
  ('PIL._version',
   'c:\\python\\lib\\site-packages\\PIL\\_version.py',
   'PYMODULE'),
  ('requests',
   'c:\\python\\lib\\site-packages\\requests\\__init__.py',
   'PYMODULE'),
  ('requests.status_codes',
   'c:\\python\\lib\\site-packages\\requests\\status_codes.py',
   'PYMODULE'),
  ('requests.structures',
   'c:\\python\\lib\\site-packages\\requests\\structures.py',
   'PYMODULE'),
  ('requests.api',
   'c:\\python\\lib\\site-packages\\requests\\api.py',
   'PYMODULE'),
  ('requests.sessions',
   'c:\\python\\lib\\site-packages\\requests\\sessions.py',
   'PYMODULE'),
  ('requests.adapters',
   'c:\\python\\lib\\site-packages\\requests\\adapters.py',
   'PYMODULE'),
  ('requests.hooks',
   'c:\\python\\lib\\site-packages\\requests\\hooks.py',
   'PYMODULE'),
  ('requests.cookies',
   'c:\\python\\lib\\site-packages\\requests\\cookies.py',
   'PYMODULE'),
  ('dummy_threading', 'c:\\python\\lib\\dummy_threading.py', 'PYMODULE'),
  ('_dummy_thread', 'c:\\python\\lib\\_dummy_thread.py', 'PYMODULE'),
  ('requests.compat',
   'c:\\python\\lib\\site-packages\\requests\\compat.py',
   'PYMODULE'),
  ('http.cookies', 'c:\\python\\lib\\http\\cookies.py', 'PYMODULE'),
  ('json', 'c:\\python\\lib\\json\\__init__.py', 'PYMODULE'),
  ('json.encoder', 'c:\\python\\lib\\json\\encoder.py', 'PYMODULE'),
  ('json.decoder', 'c:\\python\\lib\\json\\decoder.py', 'PYMODULE'),
  ('json.scanner', 'c:\\python\\lib\\json\\scanner.py', 'PYMODULE'),
  ('requests.auth',
   'c:\\python\\lib\\site-packages\\requests\\auth.py',
   'PYMODULE'),
  ('requests.models',
   'c:\\python\\lib\\site-packages\\requests\\models.py',
   'PYMODULE'),
  ('requests.utils',
   'c:\\python\\lib\\site-packages\\requests\\utils.py',
   'PYMODULE'),
  ('cgi', 'c:\\python\\lib\\cgi.py', 'PYMODULE'),
  ('requests.certs',
   'c:\\python\\lib\\site-packages\\requests\\certs.py',
   'PYMODULE'),
  ('certifi',
   'c:\\python\\lib\\site-packages\\certifi\\__init__.py',
   'PYMODULE'),
  ('certifi.core',
   'c:\\python\\lib\\site-packages\\certifi\\core.py',
   'PYMODULE'),
  ('requests.packages.urllib3.contrib.pyopenssl',
   'c:\\python\\lib\\site-packages\\requests\\packages\\urllib3\\contrib\\pyopenssl.py',
   'PYMODULE'),
  ('requests.packages.urllib3.contrib',
   'c:\\python\\lib\\site-packages\\requests\\packages\\urllib3\\contrib\\__init__.py',
   'PYMODULE'),
  ('zipfile', 'c:\\python\\lib\\zipfile.py', 'PYMODULE'),
  ('shutil', 'c:\\python\\lib\\shutil.py', 'PYMODULE'),
  ('telebot',
   'c:\\python\\lib\\site-packages\\telebot\\__init__.py',
   'PYMODULE'),
  ('telebot.apihelper',
   'c:\\python\\lib\\site-packages\\telebot\\apihelper.py',
   'PYMODULE'),
  ('telebot.types',
   'c:\\python\\lib\\site-packages\\telebot\\types.py',
   'PYMODULE'),
  ('telebot.util',
   'c:\\python\\lib\\site-packages\\telebot\\util.py',
   'PYMODULE'),
  ('six', 'c:\\python\\lib\\site-packages\\six.py', 'PYMODULE'),
  ('datetime', 'c:\\python\\lib\\datetime.py', 'PYMODULE'),
  ('sqlite3', 'c:\\python\\lib\\sqlite3\\__init__.py', 'PYMODULE'),
  ('sqlite3.dump', 'c:\\python\\lib\\sqlite3\\dump.py', 'PYMODULE'),
  ('sqlite3.dbapi2', 'c:\\python\\lib\\sqlite3\\dbapi2.py', 'PYMODULE'),
  ('os', 'c:\\python\\lib\\os.py', 'PYMODULE'),
  ('email.encoders', 'c:\\python\\lib\\email\\encoders.py', 'PYMODULE'),
  ('email', 'c:\\python\\lib\\email\\__init__.py', 'PYMODULE'),
  ('email.mime.base', 'c:\\python\\lib\\email\\mime\\base.py', 'PYMODULE'),
  ('email.mime', 'c:\\python\\lib\\email\\mime\\__init__.py', 'PYMODULE'),
  ('email.mime.multipart',
   'c:\\python\\lib\\email\\mime\\multipart.py',
   'PYMODULE'),
  ('email.mime.text', 'c:\\python\\lib\\email\\mime\\text.py', 'PYMODULE'),
  ('email.mime.nonmultipart',
   'c:\\python\\lib\\email\\mime\\nonmultipart.py',
   'PYMODULE'),
  ('smtplib', 'c:\\python\\lib\\smtplib.py', 'PYMODULE'),
  ('hmac', 'c:\\python\\lib\\hmac.py', 'PYMODULE')],
 [('python37.dll', 'c:\\python\\python37.dll', 'BINARY'),
  ('VCRUNTIME140.dll', 'c:\\python\\VCRUNTIME140.dll', 'BINARY'),
  ('_ssl', 'c:\\python\\DLLs\\_ssl.pyd', 'EXTENSION'),
  ('pyexpat', 'c:\\python\\DLLs\\pyexpat.pyd', 'EXTENSION'),
  ('_hashlib', 'c:\\python\\DLLs\\_hashlib.pyd', 'EXTENSION'),
  ('_lzma', 'c:\\python\\DLLs\\_lzma.pyd', 'EXTENSION'),
  ('_socket', 'c:\\python\\DLLs\\_socket.pyd', 'EXTENSION'),
  ('_bz2', 'c:\\python\\DLLs\\_bz2.pyd', 'EXTENSION'),
  ('select', 'c:\\python\\DLLs\\select.pyd', 'EXTENSION'),
  ('unicodedata', 'c:\\python\\DLLs\\unicodedata.pyd', 'EXTENSION'),
  ('win32wnet',
   'c:\\python\\lib\\site-packages\\win32\\win32wnet.pyd',
   'EXTENSION'),
  ('_ctypes', 'c:\\python\\DLLs\\_ctypes.pyd', 'EXTENSION'),
  ('_queue', 'c:\\python\\DLLs\\_queue.pyd', 'EXTENSION'),
  ('PIL._imagingtk',
   'c:\\python\\lib\\site-packages\\PIL\\_imagingtk.cp37-win32.pyd',
   'EXTENSION'),
  ('PIL._webp',
   'c:\\python\\lib\\site-packages\\PIL\\_webp.cp37-win32.pyd',
   'EXTENSION'),
  ('_decimal', 'c:\\python\\DLLs\\_decimal.pyd', 'EXTENSION'),
  ('PIL._imaging',
   'c:\\python\\lib\\site-packages\\PIL\\_imaging.cp37-win32.pyd',
   'EXTENSION'),
  ('win32crypt',
   'c:\\python\\lib\\site-packages\\win32\\win32crypt.pyd',
   'EXTENSION'),
  ('_sqlite3', 'c:\\python\\DLLs\\_sqlite3.pyd', 'EXTENSION'),
  ('libssl-1_1.dll', 'c:\\python\\DLLs\\libssl-1_1.dll', 'BINARY'),
  ('libcrypto-1_1.dll', 'c:\\python\\DLLs\\libcrypto-1_1.dll', 'BINARY'),
  ('pywintypes37.dll',
   'c:\\python\\lib\\site-packages\\pywin32_system32\\pywintypes37.dll',
   'BINARY'),
  ('sqlite3.dll', 'c:\\python\\DLLs\\sqlite3.dll', 'BINARY')],
 [],
 [],
 [('base_library.zip',
   'C:\\Users\\Zver\\PycharmProjects\\python_less\\pyth_steal\\build\\stealer\\base_library.zip',
   'DATA'),
  ('certifi\\cacert.pem',
   'c:\\python\\lib\\site-packages\\certifi\\cacert.pem',
   'DATA'),
  ('Include\\pyconfig.h', 'c:\\python\\Include\\pyconfig.h', 'DATA')],
 [])
