('C:\\Users\\Zver\\PycharmProjects\\python_less\\pyth_steal\\build\\stealer\\PKG-00.pkg',
 {'BINARY': 1,
  'DATA': 1,
  'EXECUTABLE': 1,
  'EXTENSION': 1,
  'PYMODULE': 1,
  'PYSOURCE': 1,
  'PYZ': 0},
 [('PYZ-00.pyz',
   'C:\\Users\\Zver\\PycharmProjects\\python_less\\pyth_steal\\build\\stealer\\PYZ-00.pyz',
   'PYZ'),
  ('struct', 'c:\\python\\lib\\struct.pyo', 'PYMODULE'),
  ('pyimod01_os_path',
   'c:\\python\\lib\\site-packages\\PyInstaller\\loader\\pyimod01_os_path.pyc',
   'PYMODULE'),
  ('pyimod02_archive',
   'c:\\python\\lib\\site-packages\\PyInstaller\\loader\\pyimod02_archive.pyc',
   'PYMODULE'),
  ('pyimod03_importers',
   'c:\\python\\lib\\site-packages\\PyInstaller\\loader\\pyimod03_importers.pyc',
   'PYMODULE'),
  ('pyiboot01_bootstrap',
   'c:\\python\\lib\\site-packages\\PyInstaller\\loader\\pyiboot01_bootstrap.py',
   'PYSOURCE'),
  ('stealer',
   'C:\\Users\\Zver\\PycharmProjects\\python_less\\pyth_steal\\stealer.PY',
   'PYSOURCE'),
  ('python37.dll', 'c:\\python\\python37.dll', 'BINARY'),
  ('VCRUNTIME140.dll', 'c:\\python\\VCRUNTIME140.dll', 'BINARY'),
  ('_ssl', 'c:\\python\\DLLs\\_ssl.pyd', 'EXTENSION'),
  ('pyexpat', 'c:\\python\\DLLs\\pyexpat.pyd', 'EXTENSION'),
  ('_hashlib', 'c:\\python\\DLLs\\_hashlib.pyd', 'EXTENSION'),
  ('_lzma', 'c:\\python\\DLLs\\_lzma.pyd', 'EXTENSION'),
  ('_socket', 'c:\\python\\DLLs\\_socket.pyd', 'EXTENSION'),
  ('_bz2', 'c:\\python\\DLLs\\_bz2.pyd', 'EXTENSION'),
  ('select', 'c:\\python\\DLLs\\select.pyd', 'EXTENSION'),
  ('unicodedata', 'c:\\python\\DLLs\\unicodedata.pyd', 'EXTENSION'),
  ('win32wnet',
   'c:\\python\\lib\\site-packages\\win32\\win32wnet.pyd',
   'EXTENSION'),
  ('_ctypes', 'c:\\python\\DLLs\\_ctypes.pyd', 'EXTENSION'),
  ('_queue', 'c:\\python\\DLLs\\_queue.pyd', 'EXTENSION'),
  ('PIL._imagingtk',
   'c:\\python\\lib\\site-packages\\PIL\\_imagingtk.cp37-win32.pyd',
   'EXTENSION'),
  ('PIL._webp',
   'c:\\python\\lib\\site-packages\\PIL\\_webp.cp37-win32.pyd',
   'EXTENSION'),
  ('_decimal', 'c:\\python\\DLLs\\_decimal.pyd', 'EXTENSION'),
  ('PIL._imaging',
   'c:\\python\\lib\\site-packages\\PIL\\_imaging.cp37-win32.pyd',
   'EXTENSION'),
  ('win32crypt',
   'c:\\python\\lib\\site-packages\\win32\\win32crypt.pyd',
   'EXTENSION'),
  ('_sqlite3', 'c:\\python\\DLLs\\_sqlite3.pyd', 'EXTENSION'),
  ('libssl-1_1.dll', 'c:\\python\\DLLs\\libssl-1_1.dll', 'BINARY'),
  ('libcrypto-1_1.dll', 'c:\\python\\DLLs\\libcrypto-1_1.dll', 'BINARY'),
  ('pywintypes37.dll',
   'c:\\python\\lib\\site-packages\\pywin32_system32\\pywintypes37.dll',
   'BINARY'),
  ('sqlite3.dll', 'c:\\python\\DLLs\\sqlite3.dll', 'BINARY'),
  ('base_library.zip',
   'C:\\Users\\Zver\\PycharmProjects\\python_less\\pyth_steal\\build\\stealer\\base_library.zip',
   'DATA'),
  ('certifi\\cacert.pem',
   'c:\\python\\lib\\site-packages\\certifi\\cacert.pem',
   'DATA'),
  ('Include\\pyconfig.h', 'c:\\python\\Include\\pyconfig.h', 'DATA'),
  ('stealer.exe.manifest',
   'C:\\Users\\Zver\\PycharmProjects\\python_less\\pyth_steal\\build\\stealer\\stealer.exe.manifest',
   'BINARY'),
  ('pyi-windows-manifest-filename stealer.exe.manifest', '', 'OPTION')],
 False,
 False,
 False)
